[
    {
        "id": 1514554903444,
        "name": "England - Premier League",
        "homeTeamType": "Team1",
        "hasOfferings": true,
        "allowRoundRobins": true,
        "leagueSpecialsCount": 1,
        "eventSpecialsCount": 0,
        "eventCount": 42,
        "pinnacleId": 1980,
        "events": [
            {
                "id": 1514555640733,
                "pinnacleId": 795158710,
                "pinnacleLeagueId": 1980,
                "startDate": 1515096000000,
                "home": "Tottenham Hotspur",
                "away": "West Ham United",
                "rotNum": "2504",
                "liveStatus": "2",
                "status": "I",
                "parlayRestriction": "2",
                "published": true,
                "periods": [
                    {
                        "id": 1514555234583,
                        "pinnacleId": 455832725,
                        "number": 0,
                        "cutoff": 1515096000000,
                        "maxSpread": 2000.00,
                        "maxTotal": 2000.00,
                        "maxMoneyline": 1000.00,
                        "maxTeamTotal": 1000.00,
                        "spreads": [
                            {
                                "id": 1514555402956,
                                "pinnacleLineId": 5534555136,
                                "pinnacleAway": 1.83,
                                "awayClear": 1.88,
                                "awayWithMargin": 1.82,
                                "awayWithWorkload": 1.82,
                                "away": 1.82,
                                "pinnacleHome": 2.08,
                                "homeClear": 2.14,
                                "homeWithMargin": 2.07,
                                "homeWithWorkload": 2.07,
                                "home": 2.07,
                                "hdp": -1.75
                            },
                            {
                                "id": 1514555068993,
                                "pinnacleLineId": 455832725,
                                "pinnacleAway": 2.06,
                                "awayClear": 2.12,
                                "awayWithMargin": 2.06,
                                "awayWithWorkload": 2.10,
                                "away": 2.10,
                                "pinnacleHome": 1.84,
                                "homeClear": 1.89,
                                "homeWithMargin": 1.84,
                                "homeWithWorkload": 1.80,
                                "home": 1.80,
                                "hdp": -1.50
                            },
                            {
                                "id": 1514555272234,
                                "pinnacleLineId": 5534555140,
                                "pinnacleAway": 3.12,
                                "awayClear": 3.28,
                                "awayWithMargin": 3.18,
                                "awayWithWorkload": 3.18,
                                "away": 3.18,
                                "pinnacleHome": 1.37,
                                "homeClear": 1.44,
                                "homeWithMargin": 1.40,
                                "homeWithWorkload": 1.40,
                                "home": 1.40,
                                "hdp": -1.00
                            },
                            {
                                "id": 1514555083911,
                                "pinnacleLineId": 5534555134,
                                "pinnacleAway": 1.58,
                                "awayClear": 1.64,
                                "awayWithMargin": 1.59,
                                "awayWithWorkload": 1.59,
                                "away": 1.59,
                                "pinnacleHome": 2.47,
                                "homeClear": 2.56,
                                "homeWithMargin": 2.49,
                                "homeWithWorkload": 2.49,
                                "home": 2.49,
                                "hdp": -2.00
                            },
                            {
                                "id": 1514555601585,
                                "pinnacleLineId": 5534555138,
                                "pinnacleAway": 2.41,
                                "awayClear": 2.50,
                                "awayWithMargin": 2.42,
                                "awayWithWorkload": 2.42,
                                "away": 2.42,
                                "pinnacleHome": 1.61,
                                "homeClear": 1.67,
                                "homeWithMargin": 1.62,
                                "homeWithWorkload": 1.62,
                                "home": 1.62,
                                "hdp": -1.25
                            }
                        ],
                        "moneylines": [
                            {
                                "id": 1514555560189,
                                "pinnacleLineId": 455832725,
                                "pinnacleAway": 12.57000,
                                "awayClear": 12.98406,
                                "awayWithMargin": 12.59454,
                                "awayWithWorkload": 12.59454,
                                "away": 12.59000,
                                "pinnacleDraw": 6.26000,
                                "drawClear": 6.46621,
                                "drawWithMargin": 6.27222,
                                "drawWithWorkload": 6.27235,
                                "draw": 6.27000,
                                "pinnacleHome": 1.26000,
                                "homeClear": 1.30150,
                                "homeWithMargin": 1.26246,
                                "homeWithWorkload": 1.26245,
                                "home": 1.26000
                            }
                        ],
                        "totals": [
                            {
                                "id": 1514555917075,
                                "pinnacleLineId": 455832725,
                                "points": 3.00,
                                "pinnacleOver": 1.93,
                                "overClear": 1.98,
                                "overWithMargin": 1.92,
                                "overWithWorkload": 1.83,
                                "over": 1.87,
                                "pinnacleUnder": 1.97,
                                "underClear": 2.02,
                                "underWithMargin": 1.96,
                                "underWithWorkload": 2.06,
                                "under": 2.03
                            },
                            {
                                "id": 1514555651521,
                                "pinnacleLineId": 5534555137,
                                "points": 2.75,
                                "pinnacleOver": 1.71,
                                "overClear": 1.77,
                                "overWithMargin": 1.72,
                                "overWithWorkload": 1.72,
                                "over": 1.72,
                                "pinnacleUnder": 2.22,
                                "underClear": 2.30,
                                "underWithMargin": 2.23,
                                "underWithWorkload": 2.23,
                                "under": 2.23
                            },
                            {
                                "id": 1514555432217,
                                "pinnacleLineId": 5534555141,
                                "points": 3.50,
                                "pinnacleOver": 2.47,
                                "overClear": 2.56,
                                "overWithMargin": 2.49,
                                "overWithWorkload": 1.91,
                                "over": 2.40,
                                "pinnacleUnder": 1.58,
                                "underClear": 1.64,
                                "underWithMargin": 1.59,
                                "underWithWorkload": 1.97,
                                "under": 1.63
                            },
                            {
                                "id": 1514555240136,
                                "pinnacleLineId": 5534555135,
                                "points": 2.50,
                                "pinnacleOver": 1.57,
                                "overClear": 1.63,
                                "overWithMargin": 1.58,
                                "overWithWorkload": 1.58,
                                "over": 1.58,
                                "pinnacleUnder": 2.48,
                                "underClear": 2.58,
                                "underWithMargin": 2.50,
                                "underWithWorkload": 2.52,
                                "under": 2.52
                            },
                            {
                                "id": 1514555856818,
                                "pinnacleLineId": 5534555139,
                                "points": 3.25,
                                "pinnacleOver": 2.20,
                                "overClear": 2.26,
                                "overWithMargin": 2.20,
                                "overWithWorkload": 2.20,
                                "over": 2.20,
                                "pinnacleUnder": 1.74,
                                "underClear": 1.79,
                                "underWithMargin": 1.74,
                                "underWithWorkload": 1.74,
                                "under": 1.74
                            }
                        ],
                        "teamTotals": [
                            {
                                "id": 1514555379495,
                                "pinnacleLineId": 455832725,
                                "homePoints": 2.25,
                                "pinnacleHomeOver": 1.89,
                                "homeOverClear": 1.95,
                                "homeOverWithMargin": 1.89,
                                "homeOverWithWorkload": 1.89,
                                "homeOver": 1.89,
                                "pinnacleHomeUnder": 1.99,
                                "homeUnderClear": 2.05,
                                "homeUnderWithMargin": 1.99,
                                "homeUnderWithWorkload": 1.99,
                                "homeUnder": 1.99,
                                "awayPoints": 0.75,
                                "pinnacleAwayOver": 2.33,
                                "awayOverClear": 2.42,
                                "awayOverWithMargin": 2.35,
                                "awayOverWithWorkload": 2.35,
                                "awayOver": 2.35,
                                "pinnacleAwayUnder": 1.64,
                                "awayUnderClear": 1.70,
                                "awayUnderWithMargin": 1.65,
                                "awayUnderWithWorkload": 1.65,
                                "awayUnder": 1.65
                            }
                        ]
                    }
                ]
            }
        ]
    }
]